{
  "development": {
    "username": "postgres",
    "password": "noufal2003",
    "database": "dbcars_challenge_development",
    "host": "127.0.0.1",
    "dialect": "postgres"
  },
  "test": {
    "username": "postgres",
    "password": "noufal2003",
    "database": "dbcars_challenge_test",
    "host": "127.0.0.1",
    "dialect": "postgres"
  },
  "production": {
    "username": "postgres",
    "password": "noufal2003",
    "database": "dbcars_challenge_production",
    "host": "127.0.0.1",
    "dialect": "postgres"
  }
}
